CREATE SCHEMA IF NOT EXISTS `Oficina` DEFAULT CHARACTER SET utf8 ;
USE `Oficina` ;

-- -----------------------------------------------------
-- Table `Oficina`.`TB_FUNCIONARIOS`
-- -----------------------------------------------------
CREATE TABLE IF NOT EXISTS `Oficina`.`TB_FUNCIONARIOS` (
  `ID_FUNCIONARIOS` INT NOT NULL AUTO_INCREMENT,
  `NM_FUNCIONARIO` VARCHAR(50) NOT NULL,
  `DS_RG` VARCHAR(12) NOT NULL,
  `DS_CPF` VARCHAR(15) NOT NULL,
  `DT_NASCIMENTO` DATE NOT NULL,
  `DS_EMAIL` VARCHAR(45) NOT NULL,
  `DS_SALARIO` DECIMAL(10) NOT NULL,
  `DS_FUNCAO` VARCHAR(45) NULL,
  `DS_ENDERECO` VARCHAR(45) NULL,
  `DS_TELEFONE` VARCHAR(15) NULL,
  `DS_CELULAR` VARCHAR(15) NULL,
  `DS_SENHA` VARCHAR(16) NOT NULL,
  PRIMARY KEY (`ID_FUNCIONARIOS`),
  UNIQUE INDEX `DS_RG_UNIQUE` (`DS_RG` ASC) ,
  UNIQUE INDEX `DS_CPF_UNIQUE` (`DS_CPF` ASC) ,
  UNIQUE INDEX `DS_EMAIL_UNIQUE` (`DS_EMAIL` ASC))
ENGINE = InnoDB;


-- -----------------------------------------------------
-- Table `Oficina`.`TB_PECAS`
-- -----------------------------------------------------
CREATE TABLE IF NOT EXISTS `Oficina`.`TB_PECAS` (
  `ID_PECAS` INT NOT NULL AUTO_INCREMENT,
  `NM_PECA` VARCHAR(30) NOT NULL,
  `DS_PRECO` DECIMAL NULL,
  PRIMARY KEY (`ID_PECAS`))
ENGINE = InnoDB;


-- -----------------------------------------------------
-- Table `Oficina`.`TB_CLIENTE`
-- -----------------------------------------------------
CREATE TABLE IF NOT EXISTS `Oficina`.`TB_CLIENTE` (
  `ID_CLIENTE` INT NOT NULL AUTO_INCREMENT,
  `NM_CLIENTE` VARCHAR(50) NOT NULL,
  `DS_RG` VARCHAR(12) NOT NULL,
  `DS_CPF` VARCHAR(15) NULL,
  `DT_NASCIMENTO` DATE NOT NULL,
  `DS_EMAIL` VARCHAR(45) NULL,
  `DS_TELEFONE` VARCHAR(15) NOT NULL,
  `DS_ENDERECO` VARCHAR(45) NULL,
  `DS_OBSERVACAO` VARCHAR(300) NULL,
  PRIMARY KEY (`ID_CLIENTE`),
  UNIQUE INDEX `DS_RG_UNIQUE` (`DS_RG` ASC))
ENGINE = InnoDB;


-- -----------------------------------------------------
-- Table `Oficina`.`TB_ORDEM_SERVICO`
-- -----------------------------------------------------
CREATE TABLE IF NOT EXISTS `Oficina`.`TB_ORDEM_SERVICO` (
  `ID_ORDEM_SERVICO` INT NOT NULL AUTO_INCREMENT,
  `DS_DATA` DATE NOT NULL,
  `DS_DESCRICAO` VARCHAR(300) NULL,
  `DS_VALOR` DECIMAL(10) NOT NULL,
  `ID_FUNCIONARIO` INT NOT NULL,
  `ID_PECAS` INT NOT NULL,
  `ID_CLIENTE` INT NOT NULL,
  PRIMARY KEY (`ID_ORDEM_SERVICO`),
  INDEX `FK_ORDEM-SERVICO_FUNCIONARIO_idx` (`ID_FUNCIONARIO` ASC),
  INDEX `FK_ORDEM-SERVICO_PECAS_idx` (`ID_PECAS` ASC),
  INDEX `FK_ORDEM-SERVICO_CLIENTE_idx` (`ID_CLIENTE` ASC),
  CONSTRAINT `FK_ORDEM-SERVICO_FUNCIONARIO`
    FOREIGN KEY (`ID_FUNCIONARIO`)
    REFERENCES `Oficina`.`TB_FUNCIONARIOS` (`ID_FUNCIONARIOS`)
    ON DELETE NO ACTION
    ON UPDATE NO ACTION,
  CONSTRAINT `FK_ORDEM-SERVICO_PECAS`
    FOREIGN KEY (`ID_PECAS`)
    REFERENCES `Oficina`.`TB_PECAS` (`ID_PECAS`)
    ON DELETE NO ACTION
    ON UPDATE NO ACTION,
  CONSTRAINT `FK_ORDEM-SERVICO_CLIENTE`
    FOREIGN KEY (`ID_CLIENTE`)
    REFERENCES `Oficina`.`TB_CLIENTE` (`ID_CLIENTE`)
    ON DELETE NO ACTION
    ON UPDATE NO ACTION)
ENGINE = InnoDB;


-- -----------------------------------------------------
-- Table `Oficina`.`TB_CARRO`
-- -----------------------------------------------------
CREATE TABLE IF NOT EXISTS `Oficina`.`TB_CARRO` (
  `ID_CARRO` INT NOT NULL AUTO_INCREMENT,
  `DS_MODELO` VARCHAR(45) NOT NULL,
  `DS_PLACA` VARCHAR(8) NOT NULL,
  `DS_OBSERVACAO` VARCHAR(300) NULL,
  `ID_CLIENTE` INT NOT NULL,
  `DS_MARCA` VARCHAR(45) NOT NULL,
  PRIMARY KEY (`ID_CARRO`),
  UNIQUE INDEX `DS_PLACA_UNIQUE` (`DS_PLACA` ASC),
  INDEX `FK_VEICULO_CLIENTE_idx` (`ID_CLIENTE` ASC),
  CONSTRAINT `FK_VEICULO_CLIENTE`
    FOREIGN KEY (`ID_CLIENTE`)
    REFERENCES `Oficina`.`TB_CLIENTE` (`ID_CLIENTE`)
    ON DELETE NO ACTION
    ON UPDATE NO ACTION)
ENGINE = InnoDB;


use oficina;
select * from TB_FUNCIONARIOs;


select * from TB_cliente;
select * from TB_carro;

select * from vw_cliente_consulta;

create view vw_cliente_consulta as
select TB_cliente.nm_cliente,
	   tb_carro.ds_modelo,
	   TB_cliente.dt_nascimento
  from TB_cliente
  join tb_carro
    on TB_cliente.id_cliente = tb_carro.id_cliente;



